<svg width="56" height="56" viewBox="0 0 56 56" fill="none" xmlns="http://www.w3.org/2000/svg">
<rect width="56" height="56" rx="4" fill="white"/>
<path d="M26.0986 29.6257H25.5361V25.3601H26.0986V29.6257Z" fill="black"/>
<path d="M30.4082 29.6257H29.8428L27.6953 26.3386V29.6257H27.1299V25.3601H27.6953L29.8486 28.6619V25.3601H30.4082V29.6257Z" fill="black"/>
<path d="M33.6352 8.24771C32.0332 5.50858 30.0319 4 27.9999 4C25.968 4 23.9668 5.50858 22.3647 8.24771C21.0408 10.5115 20.1853 13.3318 20.1853 15.4328C20.1853 17.4607 20.9854 19.3594 22.4384 20.779C23.9041 22.2113 25.8792 22.9999 28 22.9999C30.1208 22.9999 32.096 22.2112 33.5617 20.779C35.0146 19.3593 35.8147 17.4607 35.8147 15.4328C35.8146 13.3318 34.9591 10.5114 33.6352 8.24771ZM27.9999 22.1098C24.1433 22.1098 21.1223 19.177 21.1223 15.4328C21.1223 11.461 24.3368 4.89015 27.9999 4.89015C31.6631 4.89015 34.8776 11.461 34.8776 15.4328C34.8776 19.177 31.8566 22.1098 27.9999 22.1098Z" fill="black"/>
<circle cx="28" cy="42" r="10" fill="black"/>
<circle cx="28" cy="42" r="9.5" stroke="black"/>
<path d="M22.7768 41.0149C23.5301 41.997 24.9259 42.1649 25.8941 41.3915C26.8623 40.618 27.0377 39.195 26.2843 38.2128C25.9169 37.7338 25.2482 37.2572 24.5636 36.9866C24.2189 36.8504 23.8571 36.7611 23.5151 36.7555C23.1729 36.7499 22.8345 36.8284 22.5614 37.0466C22.2882 37.2648 22.1323 37.5811 22.0555 37.9216C21.9787 38.2617 21.9768 38.6416 22.0236 39.0158C22.1165 39.7589 22.4094 40.5359 22.7768 41.0149Z" fill="white"/>
<path d="M22.7768 41.0149C23.5301 41.997 24.9259 42.1649 25.8941 41.3915C26.8623 40.618 27.0377 39.195 26.2843 38.2128C25.9169 37.7338 25.2482 37.2572 24.5636 36.9866C24.2189 36.8504 23.8571 36.7611 23.5151 36.7555C23.1729 36.7499 22.8345 36.8284 22.5614 37.0466C22.2882 37.2648 22.1323 37.5811 22.0555 37.9216C21.9787 38.2617 21.9768 38.6416 22.0236 39.0158C22.1165 39.7589 22.4094 40.5359 22.7768 41.0149Z" fill="white"/>
<path d="M22.7768 41.0149C23.5301 41.997 24.9259 42.1649 25.8941 41.3915C26.8623 40.618 27.0377 39.195 26.2843 38.2128C25.9169 37.7338 25.2482 37.2572 24.5636 36.9866C24.2189 36.8504 23.8571 36.7611 23.5151 36.7555C23.1729 36.7499 22.8345 36.8284 22.5614 37.0466C22.2882 37.2648 22.1323 37.5811 22.0555 37.9216C21.9787 38.2617 21.9768 38.6416 22.0236 39.0158C22.1165 39.7589 22.4094 40.5359 22.7768 41.0149Z" fill="white"/>
<path d="M22.7768 41.0149C23.5301 41.997 24.9259 42.1649 25.8941 41.3915C26.8623 40.618 27.0377 39.195 26.2843 38.2128C25.9169 37.7338 25.2482 37.2572 24.5636 36.9866C24.2189 36.8504 23.8571 36.7611 23.5151 36.7555C23.1729 36.7499 22.8345 36.8284 22.5614 37.0466C22.2882 37.2648 22.1323 37.5811 22.0555 37.9216C21.9787 38.2617 21.9768 38.6416 22.0236 39.0158C22.1165 39.7589 22.4094 40.5359 22.7768 41.0149Z" stroke="black" stroke-width="0.5"/>
<path d="M32.4157 41.2217C33.6249 40.9097 34.3555 39.7072 34.0263 38.5238C33.6971 37.3404 32.4401 36.6508 31.2309 36.9629C30.6389 37.1156 29.9255 37.5429 29.3965 38.0632C29.1304 38.325 28.9004 38.6203 28.7563 38.9296C28.6121 39.239 28.5466 39.579 28.6398 39.9138C28.733 40.2487 28.9662 40.5116 29.2517 40.7101C29.5371 40.9085 29.8895 41.0536 30.2559 41.1521C30.9842 41.348 31.8238 41.3745 32.4157 41.2217Z" fill="white"/>
<path d="M32.4157 41.2217C33.6249 40.9097 34.3555 39.7072 34.0263 38.5238C33.6971 37.3404 32.4401 36.6508 31.2309 36.9629C30.6389 37.1156 29.9255 37.5429 29.3965 38.0632C29.1304 38.325 28.9004 38.6203 28.7563 38.9296C28.6121 39.239 28.5466 39.579 28.6398 39.9138C28.733 40.2487 28.9662 40.5116 29.2517 40.7101C29.5371 40.9085 29.8895 41.0536 30.2559 41.1521C30.9842 41.348 31.8238 41.3745 32.4157 41.2217Z" fill="white"/>
<path d="M32.4157 41.2217C33.6249 40.9097 34.3555 39.7072 34.0263 38.5238C33.6971 37.3404 32.4401 36.6508 31.2309 36.9629C30.6389 37.1156 29.9255 37.5429 29.3965 38.0632C29.1304 38.325 28.9004 38.6203 28.7563 38.9296C28.6121 39.239 28.5466 39.579 28.6398 39.9138C28.733 40.2487 28.9662 40.5116 29.2517 40.7101C29.5371 40.9085 29.8895 41.0536 30.2559 41.1521C30.9842 41.348 31.8238 41.3745 32.4157 41.2217Z" fill="white"/>
<path d="M32.4157 41.2217C33.6249 40.9097 34.3555 39.7072 34.0263 38.5238C33.6971 37.3404 32.4401 36.6508 31.2309 36.9629C30.6389 37.1156 29.9255 37.5429 29.3965 38.0632C29.1304 38.325 28.9004 38.6203 28.7563 38.9296C28.6121 39.239 28.5466 39.579 28.6398 39.9138C28.733 40.2487 28.9662 40.5116 29.2517 40.7101C29.5371 40.9085 29.8895 41.0536 30.2559 41.1521C30.9842 41.348 31.8238 41.3745 32.4157 41.2217Z" stroke="black" stroke-width="0.5"/>
<path d="M22.5088 44.3039C23.5966 44.9087 24.9952 44.5527 25.629 43.4953C26.2629 42.438 25.8838 41.0934 24.796 40.4885C24.2643 40.1929 23.4454 40.0091 22.6889 40.0168C22.3083 40.0207 21.9288 40.073 21.5998 40.1935C21.2707 40.3141 20.9759 40.5095 20.7967 40.8083C20.6176 41.1071 20.5893 41.4508 20.6454 41.7856C20.7015 42.1202 20.8442 42.4629 21.0311 42.7823C21.4024 43.4171 21.9771 44.0082 22.5088 44.3039Z" fill="white"/>
<path d="M22.5088 44.3039C23.5966 44.9087 24.9952 44.5527 25.629 43.4953C26.2629 42.438 25.8838 41.0934 24.796 40.4885C24.2643 40.1929 23.4454 40.0091 22.6889 40.0168C22.3083 40.0207 21.9288 40.073 21.5998 40.1935C21.2707 40.3141 20.9759 40.5095 20.7967 40.8083C20.6176 41.1071 20.5893 41.4508 20.6454 41.7856C20.7015 42.1202 20.8442 42.4629 21.0311 42.7823C21.4024 43.4171 21.9771 44.0082 22.5088 44.3039Z" fill="white"/>
<path d="M22.5088 44.3039C23.5966 44.9087 24.9952 44.5527 25.629 43.4953C26.2629 42.438 25.8838 41.0934 24.796 40.4885C24.2643 40.1929 23.4454 40.0091 22.6889 40.0168C22.3083 40.0207 21.9288 40.073 21.5998 40.1935C21.2707 40.3141 20.9759 40.5095 20.7967 40.8083C20.6176 41.1071 20.5893 41.4508 20.6454 41.7856C20.7015 42.1202 20.8442 42.4629 21.0311 42.7823C21.4024 43.4171 21.9771 44.0082 22.5088 44.3039Z" fill="white"/>
<path d="M22.5088 44.3039C23.5966 44.9087 24.9952 44.5527 25.629 43.4953C26.2629 42.438 25.8838 41.0934 24.796 40.4885C24.2643 40.1929 23.4454 40.0091 22.6889 40.0168C22.3083 40.0207 21.9288 40.073 21.5998 40.1935C21.2707 40.3141 20.9759 40.5095 20.7967 40.8083C20.6176 41.1071 20.5893 41.4508 20.6454 41.7856C20.7015 42.1202 20.8442 42.4629 21.0311 42.7823C21.4024 43.4171 21.9771 44.0082 22.5088 44.3039Z" stroke="black" stroke-width="0.5"/>
<path d="M25.9772 42.4846C26.3816 43.653 27.6727 44.2997 28.8585 43.9338C30.0444 43.5678 30.6819 42.326 30.2775 41.1576C30.0804 40.5881 29.5919 39.9143 29.0206 39.4239C28.7329 39.177 28.4134 38.9671 28.0856 38.841C27.7574 38.7147 27.4058 38.6671 27.0714 38.7703C26.737 38.8735 26.4831 39.1079 26.2972 39.3928C26.1116 39.6774 25.985 40.025 25.9072 40.3846C25.7528 41.0989 25.7801 41.9151 25.9772 42.4846Z" fill="white"/>
<path d="M25.9772 42.4846C26.3816 43.653 27.6727 44.2997 28.8585 43.9338C30.0444 43.5678 30.6819 42.326 30.2775 41.1576C30.0804 40.5881 29.5919 39.9143 29.0206 39.4239C28.7329 39.177 28.4134 38.9671 28.0856 38.841C27.7574 38.7147 27.4058 38.6671 27.0714 38.7703C26.737 38.8735 26.4831 39.1079 26.2972 39.3928C26.1116 39.6774 25.985 40.025 25.9072 40.3846C25.7528 41.0989 25.7801 41.9151 25.9772 42.4846Z" fill="white"/>
<path d="M25.9772 42.4846C26.3816 43.653 27.6727 44.2997 28.8585 43.9338C30.0444 43.5678 30.6819 42.326 30.2775 41.1576C30.0804 40.5881 29.5919 39.9143 29.0206 39.4239C28.7329 39.177 28.4134 38.9671 28.0856 38.841C27.7574 38.7147 27.4058 38.6671 27.0714 38.7703C26.737 38.8735 26.4831 39.1079 26.2972 39.3928C26.1116 39.6774 25.985 40.025 25.9072 40.3846C25.7528 41.0989 25.7801 41.9151 25.9772 42.4846Z" fill="white"/>
<path d="M25.9772 42.4846C26.3816 43.653 27.6727 44.2997 28.8585 43.9338C30.0444 43.5678 30.6819 42.326 30.2775 41.1576C30.0804 40.5881 29.5919 39.9143 29.0206 39.4239C28.7329 39.177 28.4134 38.9671 28.0856 38.841C27.7574 38.7147 27.4058 38.6671 27.0714 38.7703C26.737 38.8735 26.4831 39.1079 26.2972 39.3928C26.1116 39.6774 25.985 40.025 25.9072 40.3846C25.7528 41.0989 25.7801 41.9151 25.9772 42.4846Z" stroke="black" stroke-width="0.5"/>
<path d="M25.7503 47.2898C27.0006 47.2898 28.0304 46.3113 28.0304 45.0846C28.0304 43.8579 27.0006 42.8794 25.7503 42.8794C25.1378 42.8794 24.3342 43.1142 23.6835 43.4848C23.3561 43.6713 23.0547 43.8992 22.8324 44.1621C22.61 44.425 22.4551 44.7373 22.4551 45.0846C22.4551 45.4319 22.61 45.7442 22.8324 46.0071C23.0547 46.27 23.3561 46.4979 23.6835 46.6844C24.3342 47.055 25.1378 47.2898 25.7503 47.2898Z" fill="white"/>
<path d="M25.7503 47.2898C27.0006 47.2898 28.0304 46.3113 28.0304 45.0846C28.0304 43.8579 27.0006 42.8794 25.7503 42.8794C25.1378 42.8794 24.3342 43.1142 23.6835 43.4848C23.3561 43.6713 23.0547 43.8992 22.8324 44.1621C22.61 44.425 22.4551 44.7373 22.4551 45.0846C22.4551 45.4319 22.61 45.7442 22.8324 46.0071C23.0547 46.27 23.3561 46.4979 23.6835 46.6844C24.3342 47.055 25.1378 47.2898 25.7503 47.2898Z" fill="white"/>
<path d="M25.7503 47.2898C27.0006 47.2898 28.0304 46.3113 28.0304 45.0846C28.0304 43.8579 27.0006 42.8794 25.7503 42.8794C25.1378 42.8794 24.3342 43.1142 23.6835 43.4848C23.3561 43.6713 23.0547 43.8992 22.8324 44.1621C22.61 44.425 22.4551 44.7373 22.4551 45.0846C22.4551 45.4319 22.61 45.7442 22.8324 46.0071C23.0547 46.27 23.3561 46.4979 23.6835 46.6844C24.3342 47.055 25.1378 47.2898 25.7503 47.2898Z" fill="white"/>
<path d="M25.7503 47.2898C27.0006 47.2898 28.0304 46.3113 28.0304 45.0846C28.0304 43.8579 27.0006 42.8794 25.7503 42.8794C25.1378 42.8794 24.3342 43.1142 23.6835 43.4848C23.3561 43.6713 23.0547 43.8992 22.8324 44.1621C22.61 44.425 22.4551 44.7373 22.4551 45.0846C22.4551 45.4319 22.61 45.7442 22.8324 46.0071C23.0547 46.27 23.3561 46.4979 23.6835 46.6844C24.3342 47.055 25.1378 47.2898 25.7503 47.2898Z" stroke="black" stroke-width="0.5"/>
<path d="M32.9212 44.3901C34.1304 44.7022 35.3874 44.0126 35.7167 42.8292C36.0459 41.6458 35.3153 40.4433 34.1061 40.1312C33.5141 39.9785 32.6745 40.005 31.9462 40.2009C31.5798 40.2994 31.2274 40.4445 30.942 40.6429C30.6565 40.8414 30.4233 41.1043 30.3302 41.4391C30.237 41.774 30.3025 42.114 30.4467 42.4233C30.5908 42.7326 30.8207 43.028 31.0868 43.2897C31.6159 43.8101 32.3292 44.2373 32.9212 44.3901Z" fill="white"/>
<path d="M32.9212 44.3901C34.1304 44.7022 35.3874 44.0126 35.7167 42.8292C36.0459 41.6458 35.3153 40.4433 34.1061 40.1312C33.5141 39.9785 32.6745 40.005 31.9462 40.2009C31.5798 40.2994 31.2274 40.4445 30.942 40.6429C30.6565 40.8414 30.4233 41.1043 30.3302 41.4391C30.237 41.774 30.3025 42.114 30.4467 42.4233C30.5908 42.7326 30.8207 43.028 31.0868 43.2897C31.6159 43.8101 32.3292 44.2373 32.9212 44.3901Z" fill="white"/>
<path d="M32.9212 44.3901C34.1304 44.7022 35.3874 44.0126 35.7167 42.8292C36.0459 41.6458 35.3153 40.4433 34.1061 40.1312C33.5141 39.9785 32.6745 40.005 31.9462 40.2009C31.5798 40.2994 31.2274 40.4445 30.942 40.6429C30.6565 40.8414 30.4233 41.1043 30.3302 41.4391C30.237 41.774 30.3025 42.114 30.4467 42.4233C30.5908 42.7326 30.8207 43.028 31.0868 43.2897C31.6159 43.8101 32.3292 44.2373 32.9212 44.3901Z" fill="white"/>
<path d="M32.9212 44.3901C34.1304 44.7022 35.3874 44.0126 35.7167 42.8292C36.0459 41.6458 35.3153 40.4433 34.1061 40.1312C33.5141 39.9785 32.6745 40.005 31.9462 40.2009C31.5798 40.2994 31.2274 40.4445 30.942 40.6429C30.6565 40.8414 30.4233 41.1043 30.3302 41.4391C30.237 41.774 30.3025 42.114 30.4467 42.4233C30.5908 42.7326 30.8207 43.028 31.0868 43.2897C31.6159 43.8101 32.3292 44.2373 32.9212 44.3901Z" stroke="black" stroke-width="0.5"/>
<path d="M31.9013 46.7479C32.9891 46.1431 33.3682 44.7985 32.7344 43.7412C32.1005 42.6838 30.7019 42.3277 29.6141 42.9326C29.0824 43.2282 28.5077 43.8194 28.1364 44.4542C27.9495 44.7736 27.8068 45.1163 27.7507 45.4509C27.6946 45.7857 27.7229 46.1293 27.902 46.4281C28.0812 46.727 28.376 46.9224 28.7052 47.043C29.0341 47.1635 29.4136 47.2158 29.7943 47.2197C30.5507 47.2273 31.3696 47.0436 31.9013 46.7479Z" fill="white"/>
<path d="M31.9013 46.7479C32.9891 46.1431 33.3682 44.7985 32.7344 43.7412C32.1005 42.6838 30.7019 42.3277 29.6141 42.9326C29.0824 43.2282 28.5077 43.8194 28.1364 44.4542C27.9495 44.7736 27.8068 45.1163 27.7507 45.4509C27.6946 45.7857 27.7229 46.1293 27.902 46.4281C28.0812 46.727 28.376 46.9224 28.7052 47.043C29.0341 47.1635 29.4136 47.2158 29.7943 47.2197C30.5507 47.2273 31.3696 47.0436 31.9013 46.7479Z" fill="white"/>
<path d="M31.9013 46.7479C32.9891 46.1431 33.3682 44.7985 32.7344 43.7412C32.1005 42.6838 30.7019 42.3277 29.6141 42.9326C29.0824 43.2282 28.5077 43.8194 28.1364 44.4542C27.9495 44.7736 27.8068 45.1163 27.7507 45.4509C27.6946 45.7857 27.7229 46.1293 27.902 46.4281C28.0812 46.727 28.376 46.9224 28.7052 47.043C29.0341 47.1635 29.4136 47.2158 29.7943 47.2197C30.5507 47.2273 31.3696 47.0436 31.9013 46.7479Z" fill="white"/>
<path d="M31.9013 46.7479C32.9891 46.1431 33.3682 44.7985 32.7344 43.7412C32.1005 42.6838 30.7019 42.3277 29.6141 42.9326C29.0824 43.2282 28.5077 43.8194 28.1364 44.4542C27.9495 44.7736 27.8068 45.1163 27.7507 45.4509C27.6946 45.7857 27.7229 46.1293 27.902 46.4281C28.0812 46.727 28.376 46.9224 28.7052 47.043C29.0341 47.1635 29.4136 47.2158 29.7943 47.2197C30.5507 47.2273 31.3696 47.0436 31.9013 46.7479Z" stroke="black" stroke-width="0.5"/>
</svg>
